62.79011906 40.81352140 19.22636574
32.00264639 39.09330532 20.76674781
53.31709014 29.09368353 26.57393114
37.08416542 34.83995941 23.52563672
54.08467531 67.06689615 18.10992966
56.96573268 47.38306602 30.91438125
86.98203901 66.16745498 16.51578700
39.61352882 21.01448877 33.57032963
44.44890965 53.99366773 29.78141237
46.14149573 43.57370770 10.16977970
47.04083094 30.50666865 34.71968751
39.87596786 44.35927702 12.49683748
37.35210003 61.43604013 19.30283358
63.30177157 41.98672654 13.32553154
32.34764627 49.49995860 29.56901899
26.77382608 48.48836087 30.35374835
33.79316414 38.33691433 28.60395263
41.39480143 65.68174110 20.12577208
55.67102973 43.10134856 23.81388503
52.72265723 42.75628861 33.39133878
38.15046742 67.84287058 25.77748230
56.06485610 52.44546078 18.39762497
57.04761591 18.53911108 32.50477405
50.37703495 26.78585439 27.81986353
59.74527147 64.24419109 16.84899959
35.33654522 55.29185136 17.09531087
63.39190344 49.42909531 24.01653587
50.08849418 44.82857087 23.56898718
57.48229283 57.45273243 18.30967514
28.08179167 53.25140280 28.51444304
41.48761361 28.35844342 18.54583175
49.17364365 73.25821024 28.07822088
37.19102449 47.53115545 24.88181249
43.19653361 34.66326973 20.01726635
42.14996245 44.79121882 17.37109881
52.57892482 62.14447949 27.20057542
58.16737594 29.26018415 17.19123252
55.72412712 32.76416824 21.23161754
62.61444848 56.40571572 33.41416851
52.59843775 49.41439725 9.80699292
64.93424282 9.41771714 22.44944809
56.73013843 44.30612295 10.58503782
54.19694144 21.08644407 26.36850246
65.58367540 20.42819723 26.82280347
46.43607253 49.09393205 9.97283013
36.70672695 31.89807769 27.06016058
79.49703166 50.46094698 17.48054639
50.62768109 68.83292925 19.64571853
48.65778938 21.89089211 24.26785265
66.22302305 44.70733613 34.83490040
56.34858089 54.11652072 26.71200448
37.22380623 28.92518544 33.71045429
34.81595937 43.81905951 25.11280073
52.83438034 32.29866988 13.37192969
47.31768628 42.97541509 16.11094472
43.79286345 65.17803307 29.70174248
42.88086556 37.70047813 30.35987086
56.76302110 35.55173915 31.98089357
49.77618829 54.26604979 30.36703146
50.42880654 42.45771716 40.46963560
31.04284144 44.75583134 31.26030615
82.13591272 74.98017470 23.89014401
69.54772908 63.69829025 23.42884084
61.41096365 49.71471193 29.63098369
35.50643052 33.93888914 19.08749255
49.20073102 55.91717714 16.20096119
45.01502397 32.46563537 14.10656677
64.08342097 13.93538090 24.98583251
57.83907265 56.65705293 11.96857160
47.59381367 60.08712318 33.38918313
57.56103934 70.48819539 22.57221580
38.11931158 52.32290594 21.69055456
42.89687631 34.87510548 36.67650220
56.30648704 63.98843714 30.97045450
39.50134550 70.14895282 30.68861878
45.22432857 45.04156205 23.15783414
44.49443214 60.53780969 20.84357258
63.22974956 38.36367097 30.86112188
44.52746652 37.07871729 11.97672965
60.71586792 33.89348103 23.89826324
50.11704546 62.34240426 14.42525498
49.18419072 36.30140938 29.90440637
52.90208060 42.55657648 16.47297438
54.46339589 57.87007547 29.20553172
55.71814589 41.92425723 30.99143061
51.74501859 65.57517269 23.07701696
72.30234410 26.10210282 30.54942242
46.78865618 69.47198805 21.90622374
56.22187766 37.53324933 18.32370429
39.49609794 47.64357000 19.44174909
43.84154417 20.31666950 27.88129139
58.04638161 29.98586947 26.04117221
46.43216969 17.68594342 36.98273899
61.56507948 36.51995232 21.72412907
63.32843319 28.08458519 22.76766430
64.15444948 57.86674133 14.92323767
28.49683388 33.02670030 35.31191602
49.66873050 23.10685312 35.75914400
60.55303151 41.21425995 32.79266270
51.52845343 29.09607363 34.59225199
41.92509378 44.97714884 28.06894189
45.72418419 48.35680146 15.81324443
53.50925195 34.61822084 34.23639275
42.98598774 28.16634323 39.48779972
34.41861126 44.61520600 17.11676392
63.38449567 43.95836334 27.30647658
46.53322130 63.85816493 24.15602129
32.09350877 29.64241829 28.62663325
59.18933650 40.22369778 25.29522102
46.91814104 30.86045303 22.06728817
52.43073374 28.53945571 16.26512323
68.51740159 45.08394082 17.06077422
60.32857858 52.52826083 17.25453747
36.50236434 34.99687566 35.32669770
63.72617600 56.66851843 20.90950931
56.58074667 46.50902825 19.47305024
77.68783375 48.06754785 21.78261575
46.84275511 24.41267044 30.76146932
34.16122780 50.05207891 25.23435971
40.47662746 40.42063637 12.58994814
67.40187678 60.84396127 18.57134151
51.85775559 37.07348015 16.88605655
47.84041473 40.55483955 36.23633229
83.07846443 63.28733450 20.04108388
41.92259820 49.89830817 11.28148024
61.39005877 54.78555360 26.10285725
49.30609016 67.76207512 28.33514111
36.97729282 27.26512289 23.62855972
33.24775102 33.40989815 34.10272987
25.75984193 48.61695294 35.70688424
56.28109430 67.05726679 25.69186221
47.95460759 38.93960982 17.15297932
48.29650143 53.02419450 10.42809217
40.37722311 35.14419117 26.87902173
50.27962373 18.16434039 31.59863711
65.90955331 38.37571586 23.87416770
58.47986385 41.45348775 38.33109483
54.15481019 23.11159663 34.04338517
60.53184468 45.52825684 17.53803377
65.87892119 50.98826231 32.62826198
40.72469141 31.94701821 30.61279758
67.35680690 59.26001007 28.97975994
55.65416469 61.14848603 20.69123330
53.82574201 55.89884540 11.22226753
57.84905822 58.98808598 33.01233606
62.43036855 65.54747777 29.50763489
54.08392498 36.89593653 26.10314591
30.42991933 43.62571060 21.50064683
67.14684456 43.87316535 23.14941010
67.00329780 49.05940280 15.18855119
77.70873804 22.12350335 28.48515773
76.47572459 43.24979348 22.21406359
50.68252637 51.49487318 23.82958493
64.22771391 33.28912044 17.81037514
42.36078488 39.37596989 19.19497255
65.14007170 33.77380706 28.23406979
60.72081297 21.71266200 28.20801869
79.53258007 54.63140937 21.05002337
66.05500867 49.71794757 20.71659827
49.51138131 32.83264258 19.60001834
62.83491342 67.22521481 20.94242897
59.72637187 47.36637041 11.18207931
60.05650875 35.86074419 13.65481287
36.43061064 29.96412298 21.03952136
41.49245698 23.52441560 23.96114097
42.69927469 26.32631084 31.72293179
46.42007547 28.90071351 15.85212985
80.33229799 43.53641840 14.57687392
32.25575872 39.04186377 32.97814950
27.67860491 42.02593212 26.62544528
30.24784635 34.67633238 26.46596407
46.03442576 63.85630968 16.22820904
26.49212110 40.28757042 33.01311264
47.75975828 38.66294581 24.10806481
46.82550414 50.83893302 22.53810924
52.69978467 47.76947274 15.58108692
59.47703532 52.99286546 11.35192867
56.25815220 61.46635682 13.71949435
50.93043052 42.79347117 10.07191927
66.72700573 68.45482299 25.70107195
43.37047281 67.53907519 34.58273396
55.11230102 72.61255651 25.97837357
40.60351282 25.38059373 38.30070858
57.15333170 41.00214433 16.03555010
81.20973020 65.05864629 25.17858684
47.13762455 57.31617186 11.90609891
82.14763661 57.14485499 15.77217940
32.79656422 50.65242658 18.38024921
63.78265438 52.54944094 13.00138209
37.85688100 50.58327257 13.77601226
38.39675846 36.14345241 15.16800083
44.05936862 70.82722785 26.04900829
81.08376626 59.14896819 20.21849701
78.21272767 44.13294408 18.47492624
29.26249202 49.20202739 22.89829365
49.35721823 36.18197268 11.48654280
63.12555462 72.17227827 29.38588152
32.61081170 26.33523575 35.36067175
85.37327198 61.01842378 13.47185027
59.79849071 45.67341224 27.38182798
43.93206744 29.11622750 25.63901998
41.44943925 49.09598468 25.57258098
36.46358795 24.28690694 28.83869688
55.23214929 24.58040050 21.73420430
51.49667010 51.83676266 15.41375250
37.06144310 40.18043564 20.48645094
46.93498796 56.94585457 25.55383094
63.42139125 61.67191048 24.38195867
42.94379034 53.12990219 17.13513959
59.23623063 62.59367417 24.28193298
41.66990392 58.17253339 14.11327484
48.37659995 25.17395616 19.49372570
39.43198765 41.19401463 24.44324051
69.40202795 13.92574505 24.75317047
55.00693376 48.91937623 23.23050285
41.85085553 57.06465167 19.87162494
50.70884050 58.70489542 20.28335806
55.37087163 38.52706098 10.75647990
