73.24969810 69.42937420 22.33528402
55.53506974 29.63488389 25.11948821
61.88009558 65.56893191 12.62561287
79.29854645 53.45666249 22.71102758
58.25993950 84.42927767 27.04592466
80.56358810 71.20325662 27.51019680
63.51738666 70.20339528 20.28742880
68.13254116 81.31672965 24.23491375
49.99247165 71.13472891 22.64593858
70.48412412 63.76848221 24.03136160
82.89605785 59.43813822 24.79926509
93.42222146 40.45530556 24.02023301
44.46802410 50.51811937 14.08425533
50.39175604 67.78211257 26.96832417
42.03723641 73.90795497 31.45990353
84.01664695 76.43628830 28.46147828
71.37292128 46.84708702 15.62072650
53.04855313 32.35173326 29.86243050
33.16101134 49.11802274 23.18363479
43.49588559 55.67956426 13.79709482
53.05672155 71.98220768 15.48384629
77.32761900 50.31824544 16.75076775
55.75723510 64.87262920 17.43492779
66.10396721 43.52992672 21.57393422
36.06375143 68.16456415 22.23914518
36.07263796 62.53853414 28.76455816
71.06593509 40.30482391 24.76830578
39.48210957 80.77147021 33.93432635
54.70137385 35.90448141 25.53607524
71.63309521 29.69341589 27.71386788
37.21711710 61.14300667 18.76151971
58.07809978 34.52649449 19.96143210
74.37481601 53.18329143 21.19971224
58.44526211 55.21477764 10.46182637
62.92995341 79.60664421 22.29980468
48.39640407 32.60483937 23.77722703
83.08661490 63.89755634 20.25889460
62.11243963 82.45892552 24.79082078
53.61359733 84.92947115 27.95548073
37.86872552 47.02335869 26.92484400
71.61846831 72.28494267 18.08920758
84.99460291 46.62792147 23.51948264
79.06506499 75.63813049 23.12010388
59.80996203 67.61288995 18.86163773
33.66308345 59.30857176 21.47006352
59.94164124 89.55379208 34.64312179
62.96333982 39.19894958 16.72244132
59.31328636 30.38208163 23.94156715
76.47027160 45.16978269 18.16052194
59.78975680 87.32307926 30.67486299
42.45959118 67.14605751 17.04420758
66.42484982 52.98294957 16.91855051
64.68346996 49.68396527 12.36483260
38.13494731 54.92284700 23.25472636
65.54613254 37.78483693 27.12204147
82.14479516 48.71949366 20.00142021
94.76895253 33.49211957 28.59857957
64.80243033 85.65956709 28.92298084
57.15226004 78.51343745 21.46586390
56.74972157 81.03384592 23.95603249
50.92471987 81.71770838 25.24662788
79.96672682 64.30450823 24.86644509
62.83676847 76.04587702 18.74712380
59.63781333 73.09072939 23.67465278
64.90081352 78.46288498 29.45904747
67.66356177 36.18366788 20.43380418
72.00652721 67.69481796 16.32706394
56.88719487 64.41062240 11.86069885
49.96520453 36.19031914 19.57367871
35.50727173 73.56955159 28.46674299
48.29443052 79.20406399 34.04941845
50.95577701 75.07164560 25.64349516
62.05349425 27.17840987 27.61360082
61.28560994 49.61015405 18.05071785
42.66521217 75.34791405 23.12872154
46.28835638 59.81648653 12.85507439
87.04729440 65.80666285 24.72816202
39.84535303 71.85987348 21.48091485
50.29971142 41.17426103 21.74889475
46.48082838 40.23196720 17.73721273
60.83096173 57.78129416 16.18358098
75.66469863 74.02115471 26.70751895
58.51590479 59.15625302 10.71795975
48.99447991 45.93648677 13.70512881
71.77581528 40.70900609 18.64658489
55.78997272 49.75242797 17.03845319
64.26285836 55.94459263 11.60451200
74.44369258 57.36751590 19.62238130
74.08908187 37.09086627 22.48337118
36.74217048 56.54774399 18.22196663
73.13759375 48.34096970 21.65704978
50.99487050 66.56164926 13.01645853
43.13337655 36.75922438 31.11328042
36.88396613 51.54402075 18.94777212
46.22292386 41.91647513 22.45815526
65.87231847 68.88958466 14.90135995
40.57257904 69.13112748 25.35440556
49.88202674 41.07065064 16.44036740
63.84151218 30.15706636 24.81572290
45.79374203 64.93095018 14.05173519
55.98523526 67.03333870 32.39895838
52.70939122 63.90683075 23.57931754
38.38618072 48.36239834 19.04887604
48.24733376 84.13506872 29.90120213
94.47257009 34.10419790 21.90785692
49.58580454 88.45503559 37.84961932
58.26652714 45.63259476 18.55630527
47.03139628 76.88280397 30.91262972
46.98646875 46.22555497 19.32428666
67.21099750 28.35474088 27.35825397
48.39526348 71.14845241 31.05511863
48.04894142 50.60059190 17.32778101
55.41654100 70.64999343 29.63477566
80.54532252 42.42947666 21.94761589
40.07442992 38.77978300 22.88114265
55.34094891 42.47216771 21.01067277
64.82969341 60.90736141 12.06093758
62.96751481 44.56563566 14.33976644
76.82592866 34.00636088 26.77662976
70.88021548 52.86793416 13.48115916
66.36485852 56.43026164 18.34059091
67.91265630 31.63896744 24.26002347
72.33248422 57.53364409 13.70946421
60.47172664 35.79008658 25.52985474
47.17442747 75.17879131 26.46270190
56.46704296 75.72583949 17.78414127
49.20814817 29.62588006 26.77123257
71.63730568 73.03470697 25.66087367
78.68070659 58.54727103 22.53954656
56.30952750 60.09463448 15.63541087
61.60984323 63.20358364 17.70460508
77.26279508 72.27749574 20.17882144
57.02212828 38.76724860 24.56824023
58.73764155 49.06008130 11.87381437
83.17243728 59.61737005 19.46530041
53.13167147 52.30198553 16.60626013
59.66584124 34.07052624 28.34225474
70.42644606 52.87107094 20.03239628
51.68887840 49.99308342 11.69156712
52.57827433 62.70163915 17.03607550
53.77524646 43.81317350 13.92049013
82.45494444 72.32240628 22.71259374
70.94090616 77.17955016 27.73712645
73.65473635 63.06773771 20.75115828
65.52982550 73.55975812 17.52306300
68.77955464 76.92285102 20.92652186
82.48656636 68.93022615 21.84164225
54.31841482 87.90832506 32.00672671
34.19055257 64.70558555 23.79658591
60.12863782 67.37705052 27.23767220
68.26683410 77.53182804 29.28923619
63.62166234 33.84450766 21.38642861
48.36111429 65.83114098 18.85780242
51.22431159 72.76524032 38.02203918
52.32380135 68.30584946 19.24005569
62.53024476 45.53074629 19.79658528
68.32830325 40.01663163 26.06646945
40.95262843 58.24524166 20.52375089
56.53099412 68.83779214 13.64504246
70.39327912 83.37111168 27.45907518
79.49642901 55.08695319 17.06151219
49.02453841 86.34684470 33.42824962
40.17952693 54.49405607 15.95562415
63.88838055 63.39964414 25.35613846
60.50521252 41.43645882 22.04168881
31.76203859 46.48490803 26.94135035
38.07392348 67.21121422 27.25820524
76.58656971 65.86610774 24.10241074
73.02514357 43.43028456 24.53840058
62.97451307 39.28486682 23.58519097
67.03950501 49.28506113 18.94279592
44.05363814 33.79565398 24.80617011
35.53071436 42.90020905 24.18197763
74.98613552 77.91719821 31.04545970
59.74034693 71.50341121 15.07496288
44.41777102 84.57934203 34.36388213
48.60333806 75.04077779 19.42948058
28.05860991 58.73358379 33.52868895
45.48328270 79.34899177 24.73971802
54.62193670 52.84760174 10.78874270
84.38150807 67.93853962 29.01296568
33.22797166 69.81769612 28.68361832
73.70934418 62.38996224 15.03566959
52.15246657 32.84499574 22.34601084
50.47892976 55.55624204 11.45754876
87.67996229 71.41934290 28.03490399
49.76557400 36.57287067 25.47882873
39.20201639 66.66760159 19.00004772
59.48075418 42.34886272 14.66872749
75.41402187 43.41259096 30.50997031
43.46066451 73.69733232 28.16931763
66.29043132 60.07854994 18.31813027
38.06298311 59.47052910 24.75682300
69.53248528 63.54584375 14.17168003
61.17155430 59.06718368 22.06033470
46.08852385 37.79463365 26.01140820
69.97157085 45.49156599 22.14613749
45.29535557 71.67286689 24.30127064
79.44622388 79.65405565 26.76730687
72.45893837 33.84996369 24.36197143
41.95632236 63.62970789 23.45815231
42.92430764 45.40327909 17.01044345
86.26192514 52.95074751 22.72026955
65.05188038 74.98352022 25.09442568
73.49059492 75.73301124 21.06326167
55.37829142 38.61437677 17.00370692
64.63221819 69.86032889 24.96807140
85.01743011 62.82116931 29.27257584
78.20549875 60.86714776 17.02698835
47.13921967 71.14403714 16.73645895
66.29244280 65.59212458 19.73042317
61.10663778 53.19851394 17.87984435
51.16554810 78.38208510 21.69317304
68.51538050 70.49246215 24.20345375
51.54719248 61.43323968 11.38198954
39.74881595 43.87595767 19.94711231
42.92220712 39.12590603 20.41368711
74.81299060 80.02974277 25.00457208
39.17765301 75.42736554 25.78328485
55.49259838 71.71688961 20.46487153
75.36382344 68.01800033 29.51424978
68.50852374 41.51373182 16.90156084
77.22968157 66.99441855 18.00220001
77.31909833 41.26356096 27.17777966
45.07772491 68.65361563 21.97667675
76.85566000 40.44556423 20.95808090
67.60331592 44.89731891 15.04144728
40.46702964 60.10451786 16.29619418
42.39023992 80.52534259 29.08413917
57.39377602 55.06205683 16.55021070
70.79730186 58.68889790 18.63711812
55.02875439 73.45987567 25.37900954
52.73413288 47.47301827 19.60532914
75.98992763 46.05482478 24.44926067
